{
  "project_info": {
    "project_number": "373443001298",
    "firebase_url": "https://foody-28687.firebaseio.com",
    "project_id": "foody-28687",
    "storage_bucket": "foody-28687.appspot.com"
  },
  "client": [
    {
      "client_info": {
        "mobilesdk_app_id": "1:373443001298:android:3ff32c097e99c77a",
        "android_client_info": {
          "package_name": "it.gangofheroes.foody.bikers"
        }
      },
      "oauth_client": [
        {
          "client_id": "373443001298-6b67b5fe62hhqg328qnnus5cfpd3iial.apps.googleusercontent.com",
          "client_type": 1,
          "android_info": {
            "package_name": "it.gangofheroes.foody.bikers",
            "certificate_hash": "6618cd7b108cb436b05bdd9e5f16cce967957c5b"
          }
        },
        {
          "client_id": "373443001298-hhg4qb8qhfeo27inb72ubslefk88c3la.apps.googleusercontent.com",
          "client_type": 1,
          "android_info": {
            "package_name": "it.gangofheroes.foody.bikers",
            "certificate_hash": "307974195503c6e9419756949229176c62ac863f"
          }
        },
        {
          "client_id": "373443001298-d8ar73pmm2db7vh4vig5lo0baa7umqni.apps.googleusercontent.com",
          "client_type": 1,
          "android_info": {
            "package_name": "it.gangofheroes.foody.bikers",
            "certificate_hash": "880ba82040b7377ca897f72d582f84d5e8a32d17"
          }
        },
        {
          "client_id": "373443001298-qli7tk6kuq1f1vefg6klguivgn5jah3d.apps.googleusercontent.com",
          "client_type": 1,
          "android_info": {
            "package_name": "it.gangofheroes.foody.bikers",
            "certificate_hash": "dc10073be785d637e9a1e34049a912dc75af9ad6"
          }
        },
        {
          "client_id": "373443001298-t5upd0lse9k1dju8fejt79mt4ujf8mo5.apps.googleusercontent.com",
          "client_type": 1,
          "android_info": {
            "package_name": "it.gangofheroes.foody.bikers",
            "certificate_hash": "d11bc5bea4901a4339fed0c707ace069be579bb7"
          }
        },
        {
          "client_id": "373443001298-ruidr1tcqbdhgfcbrgn7rv1ulqc6rilr.apps.googleusercontent.com",
          "client_type": 3
        }
      ],
      "api_key": [
        {
          "current_key": "AIzaSyCZtMLPgiqR7p2Y0_9Wuywj2dinlpS6Kh4"
        }
      ],
      "services": {
        "appinvite_service": {
          "other_platform_oauth_client": [
            {
              "client_id": "373443001298-ruidr1tcqbdhgfcbrgn7rv1ulqc6rilr.apps.googleusercontent.com",
              "client_type": 3
            }
          ]
        }
      }
    },
    {
      "client_info": {
        "mobilesdk_app_id": "1:373443001298:android:fd80fab78a5efab6",
        "android_client_info": {
          "package_name": "it.gangofheroes.foody.customers"
        }
      },
      "oauth_client": [
        {
          "client_id": "373443001298-fve0riirefgq1ivdks1usiei1vlaqcld.apps.googleusercontent.com",
          "client_type": 1,
          "android_info": {
            "package_name": "it.gangofheroes.foody.customers",
            "certificate_hash": "307974195503c6e9419756949229176c62ac863f"
          }
        },
        {
          "client_id": "373443001298-44obcbgr8fus40mjc1g3gemu029jje7g.apps.googleusercontent.com",
          "client_type": 1,
          "android_info": {
            "package_name": "it.gangofheroes.foody.customers",
            "certificate_hash": "dc10073be785d637e9a1e34049a912dc75af9ad6"
          }
        },
        {
          "client_id": "373443001298-b74bi6nse9710cqljr7522hsb70dkj28.apps.googleusercontent.com",
          "client_type": 1,
          "android_info": {
            "package_name": "it.gangofheroes.foody.customers",
            "certificate_hash": "d11bc5bea4901a4339fed0c707ace069be579bb7"
          }
        },
        {
          "client_id": "373443001298-ruidr1tcqbdhgfcbrgn7rv1ulqc6rilr.apps.googleusercontent.com",
          "client_type": 3
        }
      ],
      "api_key": [
        {
          "current_key": "AIzaSyCZtMLPgiqR7p2Y0_9Wuywj2dinlpS6Kh4"
        }
      ],
      "services": {
        "appinvite_service": {
          "other_platform_oauth_client": [
            {
              "client_id": "373443001298-ruidr1tcqbdhgfcbrgn7rv1ulqc6rilr.apps.googleusercontent.com",
              "client_type": 3
            }
          ]
        }
      }
    },
    {
      "client_info": {
        "mobilesdk_app_id": "1:373443001298:android:011ea805b978e620",
        "android_client_info": {
          "package_name": "it.gangofheroes.foody.restaurantowners"
        }
      },
      "oauth_client": [
        {
          "client_id": "373443001298-526dpfmqlukr7l9aiost52s5258q8lc4.apps.googleusercontent.com",
          "client_type": 1,
          "android_info": {
            "package_name": "it.gangofheroes.foody.restaurantowners",
            "certificate_hash": "307974195503c6e9419756949229176c62ac863f"
          }
        },
        {
          "client_id": "373443001298-i8s2ed3g8o01fftl150gvof6ifj33mmh.apps.googleusercontent.com",
          "client_type": 1,
          "android_info": {
            "package_name": "it.gangofheroes.foody.restaurantowners",
            "certificate_hash": "dc10073be785d637e9a1e34049a912dc75af9ad6"
          }
        },
        {
          "client_id": "373443001298-af65fj6sv9f1nhjgf899o8f2fnbtc2bn.apps.googleusercontent.com",
          "client_type": 1,
          "android_info": {
            "package_name": "it.gangofheroes.foody.restaurantowners",
            "certificate_hash": "d11bc5bea4901a4339fed0c707ace069be579bb7"
          }
        },
        {
          "client_id": "373443001298-ruidr1tcqbdhgfcbrgn7rv1ulqc6rilr.apps.googleusercontent.com",
          "client_type": 3
        }
      ],
      "api_key": [
        {
          "current_key": "AIzaSyCZtMLPgiqR7p2Y0_9Wuywj2dinlpS6Kh4"
        }
      ],
      "services": {
        "appinvite_service": {
          "other_platform_oauth_client": [
            {
              "client_id": "373443001298-ruidr1tcqbdhgfcbrgn7rv1ulqc6rilr.apps.googleusercontent.com",
              "client_type": 3
            }
          ]
        }
      }
    }
  ],
  "configuration_version": "1"
}